{
    "version" : 0,
    "techniques" : {
        "0" : {
            "vertex_shader" : "res\\material\\default\\debug_2d.vert",
            "fragment_shader" : "res\\material\\default\\debug_2d.frag",
            
            "depth_test" : "false",
            "depth_write" : "false",
            "cull_face" : "false",
            
            "blending" : {
                "func_src" : "SRC_ALPHA",
                "func_dst" : "ONE_MINUS_SRC_ALPHA"
            }
        }
    }
}